,kW
0,0.119021
1,0.12364833333333332
2,0.13693033333333332
3,0.139794
4,0.1469373333333333
5,0.15075666666666665
6,0.13326466666666664
7,0.10795403333333331
8,0.1106566
9,0.11820233333333333
10,0.09740339999999999
11,0.09840119999999998
12,0.09740373333333333
13,0.06799553333333333
14,0.050065
15,0.06340459999999999
16,0.07112573333333332
17,0.03889436666666665
18,0.05495146666666665
19,0.053509966666666665
20,0.02836666666666666
21,0.058465433333333316
22,0.07700276666666664
23,0.07778193333333332
24,0.0685408
25,0.10353333333333332
26,0.0707747
27,0.04299486666666666
28,0.0193967
29,0.08443519999999999
30,0.11562823333333333
31,0.10927793333333334
32,0.07819049999999998
33,0.09078266666666666
34,0.06796086666666665
35,0.0836272
36,0.07721466666666665
37,0.09289396666666666
38,0.10251843333333333
39,0.09280096666666666
40,0.08689453333333332
41,0.08261306666666665
42,0.08357169999999998
43,0.08855796666666665
44,0.10145363333333333
45,0.10321066666666665
46,0.09232189999999998
47,0.09360203333333332
48,0.0626296
49,0.10631393333333332
50,0.12705366666666665
51,0.09890173333333332
52,0.10108883333333332
53,0.10987019999999999
54,0.12010093333333333
55,0.1089797
56,0.08110896666666666
57,0.11088953333333332
58,0.10608723333333334
59,0.11208433333333331
60,0.1098190333333333
61,0.11361233333333333
62,0.0994815
63,0.10488569999999998
64,0.12213696666666667
65,0.12260533333333332
66,0.132462
67,0.12363699999999998
68,0.1147780333333333
69,0.11882966666666664
70,0.13358666666666666
71,0.1386143333333333
72,0.129098
73,0.14658366666666664
74,0.14500533333333332
75,0.14737433333333333
76,0.14843366666666666
77,0.16524999999999998
78,0.166828
79,0.16252799999999998
80,0.15553633333333333
81,0.1709063333333333
82,0.15775033333333333
83,0.177395
84,0.18622
85,0.16744799999999996
86,0.17003833333333335
87,0.17942766666666665
88,0.17968466666666666
89,0.15294
90,0.15887266666666663
91,0.16050233333333333
92,0.16265933333333332
93,0.129153
94,0.11922899999999997
95,0.134386
