,grid_import,grid_export,min cost,Last_elec,elec_supply_price,opt_ele_price,PV_power,pv_pv2demand,pv_pv2grid,EV_power,EV_SOC
0,0.119021,0.0,0.00838596041998058,0.119021,0.28168703822098623,0.0335438416799221,0.0,0.0,0.0,0.0,30.0
1,0.123648333333333,0.0,0.00876835875428759,0.1236483333333333,0.2835144043729943,0.03507343501715066,0.0,0.0,0.0,0.0,30.0
2,0.136930333333333,0.0,0.0097721198099511,0.1369303333333333,0.28533448243676596,0.03908847923980409,0.0,0.0,0.0,0.0,30.0
3,0.139794,0.0,0.0474933209541401,0.139794,0.28712023225917566,0.040155397771665116,0.0,0.0,0.0,0.0,30.0
4,0.146937333333333,0.0,0.0106162335329146,0.1469373333333333,0.288878566883182,0.04246493413165796,0.0,0.0,0.0,0.0,30.0
5,0.150756666666667,0.0,0.010956811210699,0.1507566666666666,0.2905953433245439,0.043827244842796376,0.0,0.0,0.0,0.0,30.0
6,0.133264666666667,0.0,0.00974111684423538,0.1332646666666666,0.2922473272051688,0.0389644673769417,0.0,0.0,0.0,0.0,30.0
7,0.107954033333333,0.0,0.00793462144415485,0.1079540333333333,0.2938297146083942,0.031738485776619155,0.0,0.0,0.0,0.0,30.0
8,0.1106566,0.0,0.113417624172487,0.1106566,0.29538843138408355,0.03270521833943439,0.0,0.0,0.0,0.0,30.0
9,0.118202333333333,0.0,0.106379182063099,0.1182023333333333,0.2968872118770172,0.035111449901878755,0.0,0.0,0.0,0.0,30.0
10,0.0974033999999999,0.0,0.104189115250499,0.0974033999999999,0.298268395271144,0.029071182651480433,0.0,0.0,0.0,0.0,30.0
11,0.0984011999999999,0.0,0.106072464671682,0.0984011999999999,0.2996063026258718,0.02950058033621149,0.0,0.0,0.0,0.0,30.0
12,0.0974037333333333,0.0,0.00733088535562788,0.0974037333333333,0.3008555715731067,0.029323541422511767,0.0,0.0,0.0,0.0,30.0
13,0.0679955333333333,0.0,0.0557091671093667,0.0679955333333333,0.3019316223346184,0.02054919485307441,0.0,0.0,0.0,0.0,30.0
14,0.050065,0.0,0.0037959426797188,0.050065,0.30289585804595587,0.015183770718875377,0.0,0.0,0.0,0.0,30.0
15,0.0634045999999999,0.0,0.0048226919562534,0.0634045999999999,0.3039428297322329,0.019290767825013527,0.0,0.0,0.0,0.0,30.0
16,0.0711257333333333,0.0,0.0582186505394709,0.0711257333333333,0.30483850121348643,0.021701345797164786,0.0,0.0,0.0,0.0,30.0
17,0.0384974603840323,0.0,0.00294379133472713,0.0388943666666666,0.3033726674194373,0.011775165338908466,0.0003969062826343,0.0003969062826343,0.0,0.0,30.0
18,0.0522792668292934,0.0,0.00400608236591521,0.0549514666666666,0.2966182816644075,0.016024329463661006,0.0026721998373732,0.0026721998373732,0.0,0.0,30.0
19,0.0447519224343124,0.0,0.0128206903159357,0.0535099666666666,0.2744877698912142,0.013740895328716684,0.0087580442323542,0.0087580442323542,0.0,0.0,30.0
20,0.0130644572643162,0.0,0.108877525587382,0.0283666666666666,0.20062296369801844,0.004016823999011702,0.0153022094023504,0.0153022094023504,0.0,0.0,30.0
21,0.0420399287660067,0.0,0.0608427272948386,0.0584654333333333,0.251958063160912,0.012938227648440248,0.0164255045673266,0.0164255045673266,0.0,0.0,30.0
22,0.0528653709487354,0.0,0.00406984124071059,0.0770027666666666,0.2457172331275807,0.01627936496284234,0.0241373957179312,0.0241373957179312,0.0,0.0,30.0
23,0.0264338472383701,0.0,0.0387714511992398,0.0777819333333333,0.17720302808606808,0.00814162494941799,0.0513480860949632,0.0513480860949632,0.0,0.0,30.0
24,0.0,0.0,0.110249319587629,0.0685408,0.11000000000000001,0.0,0.0712734554843731,0.0685408,0.0,0.00273265548437309,30.003347502968346
25,0.0112723486192548,0.0,0.0717871307804424,0.1035333333333333,0.13151069288194986,0.003469183153784097,0.0922609847140785,0.0922609847140785,0.0,0.0,30.003347502968346
26,0.0,0.0,0.115665319587629,0.0707747,0.11000000000000001,0.0,0.1397794371645307,0.0707747,0.0,0.0690047371645307,30.0878783059949
27,0.0,0.0,0.0656188142208037,0.0429948666666666,0.11,0.0,0.2225928205635584,0.0429948666666666,0.0,0.179597953896892,30.3078857995186
28,0.0,0.0,0.113609319587629,0.0193967,0.11,0.0,0.2874608333804096,0.0193967,0.0,0.26806413338041,30.6362643629096
29,0.0,0.0,0.120489319587629,0.0844351999999999,0.11000000000000001,0.0,0.2704584615722742,0.0844351999999999,0.0,0.186023261572276,30.864142858335597
30,0.0,0.0,0.127289319587629,0.1156282333333333,0.11000000000000001,0.0,0.275620782262111,0.1156282333333333,0.0,0.159992548928778,31.060133730773355
31,0.0,0.0,-4.83410791350684e-18,0.1092779333333333,0.11,0.0,0.2184419909806602,0.1092779333333333,0.0,0.109164057647327,31.193859701391354
32,0.0,0.0,0.125025319587629,0.0781904999999999,0.11,0.0,0.3589581664374454,0.0781904999999999,0.0,0.280767666437445,31.537800092777204
33,0.0,0.0,7.76659811680353e-17,0.0907826666666666,0.10999999999999999,0.0,0.4052814097125942,0.0907826666666666,0.0,0.314498743045928,31.9230610530085
34,0.0,0.0,-3.98334164431295e-17,0.0679608666666666,0.11,0.0,0.4517237452357822,0.0679608666666666,0.0,0.383762878569116,32.393170579255646
35,0.0,0.0,4.93861690755821e-17,0.0836272,0.11,0.0,0.4744234025565278,0.0836272,0.0,0.390796202556528,32.8718959273874
36,0.0,0.0,0.0731491344857838,0.0772146666666666,0.10999999999999999,0.0,0.5245544579368033,0.0772146666666666,0.0,0.447339791270137,33.4198871716933
37,0.0,0.0,0.122737319587629,0.0928939666666666,0.11,0.0,0.5465478713870874,0.0928939666666666,0.0,0.453653904720421,33.9756132049758
38,0.0,0.0,0.121721319587629,0.1025184333333333,0.11,0.0,0.525628984720212,0.1025184333333333,0.0,0.423110551386879,34.49392363042475
39,0.0,0.0,0.121793319587629,0.0928009666666666,0.11,0.0,0.5567828403483491,0.0928009666666666,0.0,0.463981873681683,35.0623014256848
40,0.0,0.0,0.124945319587629,0.0868945333333333,0.11000000000000001,0.0,0.603550112607742,0.0868945333333333,0.0,0.516655579274409,35.695204510295945
41,0.0,0.0,0.127649319587629,0.0826130666666666,0.11,0.0,0.6188886221428402,0.0826130666666666,0.0,0.536275555476174,36.35214206575425
42,0.0,0.0,0.125577319587629,0.0835716999999999,0.11,0.0,0.6683449168532865,0.0835716999999999,0.0,0.584773216853287,37.06848925639955
43,0.0,0.0,0.122737319587629,0.0885579666666666,0.11000000000000001,0.0,0.6451639440721029,0.0885579666666666,0.0,0.556605977405436,37.750331578721195
44,0.0,0.0,0.0722625694375519,0.1014536333333333,0.11,0.0,0.6905820093769165,0.1014536333333333,0.0,0.589128376043583,38.472013839374604
45,0.0,0.0,2.30500231675387e-17,0.1032106666666666,0.11,0.0,0.6800678978084592,0.1032106666666666,0.0,0.576857231141792,39.178663947523305
46,0.0,0.0,-8.4969164305133e-17,0.0923218999999999,0.10999999999999999,0.0,0.6737724325777043,0.0923218999999999,0.0,0.581450532577704,39.890940849931
47,0.0,0.0,-4.62146823708493e-17,0.0936020333333333,0.11,0.0,0.6895445729335989,0.0936020333333333,0.0,0.595942539600266,40.620970460941294
48,0.0,0.0,2.88412226518162e-17,0.0626296,0.10999999999999999,0.0,0.7101769423169699,0.0626296,0.0,0.64754734231697,41.4142159552796
49,0.0,0.0,-5.70059609517769e-17,0.1063139333333333,0.11000000000000001,0.0,0.6819045250327778,0.1063139333333333,0.0,0.575590591699444,42.1193144301114
50,0.0,0.0,4.70507211381399e-17,0.1270536666666666,0.11,0.0,0.6711045968954853,0.1270536666666666,0.0,0.544050930228819,42.785776819641754
51,0.0,0.0,-4.55723051172917e-16,0.0989017333333333,0.11,0.0,0.68955760215261,0.0989017333333333,0.0,0.590655868819271,43.50933025894535
52,0.0,0.0,2.68647573705172e-18,0.1010888333333333,0.10999999999999999,0.0,0.6324409485177444,0.1010888333333333,0.0,0.531352115184411,44.160236600046254
53,0.0,0.0,-3.70152148572227e-17,0.1098701999999999,0.11,0.0,0.6915951181972851,0.1098701999999999,0.0,0.581724918197285,44.872849624837905
54,0.0,0.0,4.67872779457646e-18,0.1201009333333333,0.11,0.0,0.6927518737686186,0.1201009333333333,0.0,0.572650940435285,45.57434702687115
55,0.0,0.0,-5.43688500100998e-17,0.1089797,0.11,0.0,0.6396505399939887,0.1089797,0.0,0.530670839993989,46.22441880586375
56,0.0,0.0,4.60964662610633e-17,0.0811089666666666,0.11,0.0,0.6395613624011531,0.0811089666666666,0.0,0.558452395734486,46.908522990638495
57,0.0,0.0,3.64922927190428e-18,0.1108895333333333,0.10999999999999999,0.0,0.6033841456299609,0.1108895333333333,0.0,0.492494612296628,47.5118288907019
58,0.0,0.0,0.0,0.1060872333333333,0.11,0.0,0.5722588669050502,0.1060872333333333,0.0,0.466171633571717,48.08288914182725
59,0.0,0.0,0.121457319587629,0.1120843333333333,0.11,0.0,0.5288526633227418,0.1120843333333333,0.0,0.416768329989409,48.59343034606425
60,0.0,0.0,0.0261606044459047,0.1098190333333333,0.10999999999999999,0.0,0.5544074398894671,0.1098190333333333,0.0,0.444588406556134,49.13805114409555
61,0.0,0.0,0.117089319587629,0.1136123333333333,0.11,0.0,0.5035053532866537,0.1136123333333333,0.0,0.38989301995332,49.61567009353834
62,0.0,0.0,0.11215331958763,0.0994815,0.10999999999999999,0.0,0.4397821517690255,0.0994815,0.0,0.34030065176904,50.032538391955505
63,0.0,0.0,0.113361319587629,0.1048856999999999,0.11,0.0,0.422823627445313,0.1048856999999999,0.0,0.317937927445313,50.422012353076
64,0.0,0.0,3.53727552992722e-18,0.1221369666666666,0.11,0.0,0.3891928643361303,0.1221369666666666,0.0,0.267055897669464,50.74915582772099
65,0.0,0.0,0.02871410906348,0.1226053333333333,0.11,0.0,0.3625573929309188,0.1226053333333333,0.0,0.239952059597586,51.043097100728005
66,0.0,0.0,0.113737319587629,0.132462,0.10999999999999999,0.0,0.331549466090727,0.132462,0.0,0.199087466090727,51.286979246689
67,0.0,0.0,0.115857319587629,0.1236369999999999,0.11,0.0,0.2891515036087313,0.1236369999999999,0.0,0.165514503608731,51.489734513609996
68,0.0,0.0,0.106713319587629,0.1147780333333333,0.11,0.0,0.2556871191847003,0.1147780333333333,0.0,0.140909085851367,51.662348143778004
69,0.0,0.0,0.112353319587629,0.1188296666666666,0.11000000000000001,0.0,0.2057292744732515,0.1188296666666666,0.0,0.0868996078065849,51.768800163341
70,9.98875350490259,0.0,0.741634497575024,0.1335866666666666,0.250028192412728,2.5177647119495803,0.1448331617640747,0.1335866666666666,0.0,10.0,64.018800163341
71,10.0066168048984,0.0,0.746658178296228,0.1386143333333333,0.2501498789273419,2.5216674348343977,0.1319975284349405,0.1319975284349405,0.0,10.0,76.268800163341
72,10.0326059720548,0.0,0.741461859509258,0.129098,0.25070526637552987,2.5288181596865082,0.0964920279451717,0.0964920279451717,0.0,10.0,88.518800163341
73,9.44938833152117,0.0,0.709342669549926,0.1465836666666666,0.2511979972693188,2.383509399849186,0.0696033650712913,0.0696033650712913,0.0,9.3724080299258,100.0
74,0.114215641999266,0.0,0.00721094778363526,0.1450053333333333,0.2221948459139238,0.0288437911345411,0.030789691334067,0.030789691334067,0.0,0.0,100.0
75,0.116289771774031,0.0,0.00735399294907674,0.1473743333333333,0.22272535718868822,0.029415971796307068,0.0310845615593022,0.0310845615593022,0.0,0.0,100.0
76,0.126694852492658,0.0,0.122334161026067,0.1484336666666666,0.2323893032975365,0.032115365753754184,0.0217388141740083,0.0217388141740083,0.0,0.0,100.0
77,0.14989277502579,0.0,0.0524044501612201,0.1652499999999999,0.2406577039057981,0.03809245659366056,0.0153572249742096,0.0153572249742096,0.0,0.0,100.0
78,0.157378360957525,0.0,0.125685766277331,0.166828,0.24659881537837744,0.04011378675880954,0.009449639042475,0.009449639042475,0.0,0.0,100.0
79,0.155181355356367,0.0,0.124131277442538,0.1625279999999999,0.24907741797497612,0.03968783141963479,0.007346644643633,0.007346644643633,0.0,0.0,100.0
80,0.155512136252283,0.0,0.12474204376113,0.1555363333333333,0.2566017684789992,0.03992289669400483,2.419708105048008e-05,2.419708105048008e-05,0.0,0.0,100.0
81,0.170906333333333,0.0,0.124095639081299,0.1709063333333333,0.2576996834893978,0.044057277974682375,0.0,0.0,0.0,0.0,100.0
82,0.157750333333333,0.0,0.118669621991792,0.1577503333333333,0.25885412310386946,0.040849209616653406,0.0,0.0,0.0,0.0,100.0
83,0.177395,0.0,0.122252909053142,0.177395,0.26011638559989864,0.04615835786205401,0.0,0.0,0.0,0.0,100.0
84,0.18622,0.0,0.128465235850808,0.18622,0.26145698289349045,0.048703665052715145,0.0,0.0,0.0,0.0,100.0
85,0.167448,0.0,0.0110078087243613,0.1674479999999999,0.2628633877900379,0.04403123489744527,0.0,0.0,0.0,0.0,100.0
86,0.170038333333333,0.0,0.128410725169528,0.1700383333333333,0.2643532556503824,0.044965622327596565,0.0,0.0,0.0,0.0,100.0
87,0.179427666666667,0.0,0.129309259314096,0.1794276666666666,0.2659131029341847,0.047727758905867425,0.0,0.0,0.0,0.0,100.0
88,0.179684666666667,0.0,0.0120216190834686,0.1796846666666666,0.2675282449033905,0.048086476333874514,0.0,0.0,0.0,0.0,100.0
89,0.15294,0.0,0.127577426259223,0.15294,0.2691807807525947,0.0411844266863771,0.0,0.0,0.0,0.0,100.0
90,0.158872666666667,0.0,0.0107636109445033,0.1588726666666666,0.27089841719968516,0.04305444377801324,0.0,0.0,0.0,0.0,100.0
91,0.160502333333333,0.0,0.128369695384943,0.1605023333333333,0.2726517247938988,0.04377750318925791,0.0,0.0,0.0,0.0,100.0
92,0.162659333333333,0.0,0.0111640203853498,0.1626593333333333,0.2744363756388721,0.04465608154139897,0.0,0.0,0.0,0.0,100.0
93,0.129153,0.0,0.00892270496080589,0.129153,0.27621656629419455,0.035690819843223524,0.0,0.0,0.0,0.0,100.0
94,0.119229,0.0,0.00829144426380408,0.1192289999999999,0.2780277808011148,0.03316577705521623,0.0,0.0,0.0,0.0,100.0
95,0.134386,0.0,0.0100703257438144,0.134386,0.29960221119862107,0.040281302975257754,0.0,0.0,0.0,0.0,100.0
